Requested Item,Offer A,Offer B,Offer C
100 tons of steel,tralala,€190 000,€195 000
50 tons of nickel,€400 000,€380 000,€390 000
250 screw drivers,€20 000,€15 000,Unavailable
200 liters of machine oil,€40 000,Unavailable,€38 000